<?xml version="1.0" standalone="no"?>
<!DOCTYPE svg PUBLIC "-//W3C//DTD SVG 20010904//EN"
 "http://www.w3.org/TR/2001/REC-SVG-20010904/DTD/svg10.dtd">
<svg version="1.0" xmlns="http://www.w3.org/2000/svg"
 width="7083.000000pt" height="7083.000000pt" viewBox="0 0 7083.000000 7083.000000"
 preserveAspectRatio="xMidYMid meet">
<metadata>
Created by potrace 1.11, written by Peter Selinger 2001-2013
</metadata>
<g transform="translate(0.000000,7083.000000) scale(0.100000,-0.100000)"
fill="#000000" stroke="none">
<path d="M70620 70668 c-207 -161 -382 -297 -830 -643 -135 -105 -252 -195
-260 -202 -8 -7 -107 -83 -220 -171 -113 -87 -309 -239 -436 -338 -127 -98
-246 -190 -264 -204 -19 -14 -135 -104 -259 -200 -124 -97 -356 -276 -516
-400 -380 -294 -495 -383 -581 -450 -39 -30 -106 -82 -148 -115 -43 -33 -110
-85 -150 -116 -39 -30 -190 -148 -336 -260 -658 -509 -857 -663 -889 -688 -18
-14 -66 -51 -105 -82 -66 -52 -594 -460 -786 -608 -47 -36 -89 -69 -95 -74 -5
-4 -28 -21 -50 -38 -22 -17 -53 -41 -70 -54 -16 -14 -97 -76 -180 -140 -187
-145 -192 -149 -292 -226 -44 -35 -125 -98 -179 -139 -53 -41 -193 -149 -310
-240 -513 -398 -1121 -870 -1190 -922 -147 -113 -780 -602 -810 -627 -18 -14
-45 -36 -60 -47 -30 -23 -338 -261 -599 -464 -191 -148 -342 -265 -465 -360
-116 -90 -165 -128 -418 -325 -107 -82 -206 -159 -222 -170 -23 -17 -176 -135
-485 -375 -214 -167 -444 -345 -465 -361 -25 -19 -78 -60 -135 -104 -16 -13
-73 -57 -125 -97 -52 -41 -216 -168 -365 -283 -148 -115 -430 -333 -625 -484
-195 -151 -398 -308 -450 -348 -52 -41 -102 -79 -110 -86 -8 -7 -73 -57 -145
-112 -71 -55 -137 -105 -145 -112 -8 -7 -69 -54 -135 -105 -66 -51 -124 -96
-130 -100 -8 -7 -291 -226 -455 -353 -141 -108 -356 -275 -365 -283 -5 -4
-109 -84 -230 -178 -343 -265 -669 -517 -680 -526 -5 -5 -28 -22 -50 -39 -22
-17 -53 -41 -70 -54 -16 -13 -113 -88 -215 -166 -102 -79 -187 -145 -190 -148
-3 -4 -41 -33 -84 -66 -98 -75 -129 -98 -202 -156 -33 -25 -201 -155 -374
-289 -173 -134 -347 -269 -386 -299 -141 -110 -318 -247 -373 -288 -31 -23
-69 -54 -86 -67 -40 -34 -341 -267 -369 -286 -12 -8 -46 -34 -76 -58 -30 -24
-68 -54 -85 -67 -16 -13 -96 -74 -176 -137 -80 -62 -161 -124 -179 -138 -18
-14 -119 -92 -224 -173 -105 -82 -202 -158 -216 -168 -92 -70 -226 -174 -230
-179 -3 -3 -21 -17 -40 -30 -19 -13 -37 -27 -40 -30 -4 -4 -59 -47 -125 -97
-5 -5 -59 -46 -120 -93 -60 -47 -122 -95 -136 -105 -15 -11 -116 -90 -225
-175 -279 -216 -510 -395 -794 -615 -135 -104 -247 -192 -250 -195 -3 -3 -21
-17 -40 -30 -19 -13 -40 -29 -47 -35 -6 -5 -53 -42 -105 -82 -51 -40 -150
-116 -219 -170 -69 -54 -141 -109 -159 -123 -18 -14 -81 -62 -139 -107 -137
-107 -122 -96 -420 -325 -141 -109 -263 -203 -271 -210 -8 -7 -105 -83 -215
-168 -111 -85 -277 -213 -369 -285 -92 -71 -256 -198 -364 -282 -109 -84 -201
-156 -207 -160 -5 -5 -59 -46 -120 -92 -60 -46 -114 -89 -120 -95 -5 -7 -26
-23 -45 -36 -19 -14 -134 -101 -255 -195 -200 -156 -433 -336 -1205 -933 -146
-113 -303 -235 -350 -272 -47 -37 -227 -176 -400 -310 -619 -479 -790 -611
-1010 -782 -80 -62 -172 -133 -205 -158 -33 -25 -62 -47 -65 -51 -3 -3 -23
-18 -45 -35 -22 -16 -45 -33 -51 -39 -6 -5 -23 -19 -38 -30 -16 -11 -33 -25
-40 -30 -6 -6 -72 -57 -146 -114 -254 -196 -305 -236 -320 -248 -8 -7 -181
-141 -385 -298 -203 -157 -377 -291 -385 -298 -8 -7 -105 -82 -215 -166 -110
-85 -258 -200 -330 -256 -111 -87 -406 -315 -635 -492 -36 -27 -140 -108 -231
-179 -91 -71 -181 -140 -199 -154 -36 -28 -437 -338 -485 -376 -49 -38 -1339
-1037 -1375 -1064 -18 -14 -79 -61 -135 -105 -56 -44 -117 -91 -135 -105 -18
-14 -88 -68 -155 -120 -67 -52 -134 -104 -150 -115 -15 -11 -32 -25 -39 -31
-6 -5 -49 -39 -96 -74 -47 -36 -90 -69 -96 -75 -6 -5 -23 -19 -38 -30 -16 -11
-66 -49 -111 -85 -46 -36 -139 -108 -207 -160 -68 -52 -130 -100 -138 -107
-17 -14 -260 -203 -304 -236 -16 -12 -115 -89 -220 -170 -105 -82 -236 -183
-291 -224 -55 -42 -102 -79 -105 -83 -3 -3 -43 -35 -90 -70 -47 -35 -89 -67
-95 -72 -5 -4 -26 -20 -45 -36 -19 -15 -114 -89 -210 -162 -96 -74 -177 -137
-180 -141 -3 -3 -26 -21 -51 -40 -50 -37 -205 -156 -229 -176 -8 -7 -91 -71
-185 -143 -93 -72 -179 -139 -190 -149 -11 -9 -41 -31 -65 -48 -25 -17 -54
-39 -65 -50 -11 -10 -38 -31 -60 -48 -22 -16 -47 -35 -55 -42 -8 -7 -202 -157
-430 -333 -228 -176 -430 -333 -449 -348 -19 -15 -47 -36 -62 -47 -23 -17
-157 -120 -573 -444 -59 -47 -80 -63 -177 -137 -57 -44 -383 -296 -534 -414
-114 -89 -370 -287 -1065 -825 -305 -236 -559 -433 -565 -437 -10 -9 -183
-142 -525 -407 -102 -79 -198 -154 -215 -167 -16 -13 -205 -159 -420 -325
-214 -166 -403 -312 -420 -325 -37 -30 -111 -87 -301 -233 -82 -63 -172 -133
-200 -155 -28 -23 -66 -52 -84 -66 -19 -14 -68 -52 -110 -85 -43 -33 -92 -71
-111 -85 -18 -14 -47 -36 -63 -50 -17 -14 -58 -46 -91 -70 -33 -24 -66 -50
-75 -57 -20 -17 -714 -555 -865 -671 -137 -105 -638 -493 -673 -521 -13 -10
-75 -58 -139 -107 -63 -49 -161 -125 -218 -169 -56 -44 -117 -91 -135 -105
-18 -14 -79 -61 -136 -105 -56 -44 -155 -120 -219 -170 -119 -91 -257 -199
-420 -325 -122 -95 -361 -280 -507 -392 -67 -51 -138 -106 -158 -123 -21 -16
-60 -47 -86 -67 -205 -158 -513 -396 -595 -461 -37 -29 -88 -69 -115 -89 -27
-21 -106 -82 -175 -135 -69 -54 -139 -108 -155 -120 -60 -46 -330 -256 -356
-276 -15 -12 -39 -31 -54 -42 -27 -20 -575 -445 -604 -468 -8 -7 -94 -73 -190
-147 -180 -138 -451 -348 -575 -445 -71 -56 -349 -271 -395 -306 -33 -25 -98
-75 -135 -104 -16 -13 -97 -76 -180 -140 -82 -64 -163 -127 -180 -139 -16 -13
-275 -214 -575 -445 -300 -232 -552 -428 -560 -434 -9 -7 -76 -60 -150 -117
-74 -57 -147 -113 -161 -124 -14 -12 -40 -32 -59 -46 -32 -25 -176 -136 -585
-453 -207 -160 -567 -439 -615 -476 -112 -86 -240 -185 -265 -205 -26 -21
-375 -291 -665 -515 -47 -36 -92 -71 -100 -78 -13 -11 -162 -126 -250 -193
-35 -26 -274 -212 -300 -233 -9 -7 -45 -34 -80 -62 -36 -27 -67 -52 -70 -55
-3 -3 -21 -17 -40 -30 -19 -14 -44 -32 -55 -42 -11 -9 -105 -83 -210 -163
-104 -81 -203 -158 -220 -170 -38 -30 -322 -250 -355 -275 -14 -11 -36 -28
-50 -40 -14 -11 -101 -79 -195 -151 -93 -72 -179 -138 -190 -147 -12 -9 -68
-53 -125 -97 -58 -44 -109 -83 -115 -87 -31 -25 -153 -120 -319 -248 -103 -80
-225 -174 -270 -210 -46 -36 -98 -76 -116 -90 -36 -27 -165 -127 -190 -147 -8
-7 -91 -71 -185 -143 -93 -72 -177 -136 -185 -143 -8 -7 -33 -26 -55 -42 -22
-17 -46 -35 -55 -42 -34 -27 -229 -180 -260 -203 -18 -14 -166 -128 -330 -255
-163 -126 -310 -240 -326 -252 -16 -13 -99 -77 -184 -143 -160 -124 -175 -136
-350 -271 -58 -44 -118 -92 -135 -105 -16 -13 -118 -91 -225 -174 -107 -83
-202 -156 -210 -163 -8 -7 -33 -26 -55 -42 -22 -17 -45 -34 -51 -40 -6 -5 -26
-21 -44 -35 -51 -38 -233 -179 -251 -194 -14 -11 -89 -69 -158 -121 -32 -24
-452 -349 -531 -411 -49 -39 -138 -108 -210 -164 -14 -11 -210 -162 -436 -337
-226 -175 -426 -330 -445 -345 -19 -15 -99 -77 -178 -138 -79 -61 -160 -123
-179 -138 -82 -64 -156 -122 -248 -193 -200 -154 -519 -401 -535 -413 -9 -7
-105 -82 -215 -167 -109 -84 -203 -157 -209 -162 -5 -4 -84 -65 -175 -135 -91
-71 -275 -214 -410 -318 -135 -105 -285 -221 -335 -259 -111 -85 -102 -78
-151 -117 -23 -18 -166 -130 -320 -248 -153 -118 -304 -235 -335 -260 -32 -25
-70 -55 -86 -67 -150 -115 -461 -356 -473 -366 -9 -7 -42 -33 -75 -57 -33 -25
-69 -53 -80 -62 -11 -9 -87 -69 -170 -133 -82 -63 -160 -123 -172 -133 -12 -9
-33 -25 -46 -35 -13 -10 -92 -70 -174 -135 -83 -64 -165 -128 -183 -142 -64
-48 -846 -654 -916 -709 -39 -31 -86 -67 -104 -81 -39 -29 -129 -100 -458
-356 -134 -104 -256 -198 -270 -209 -15 -11 -207 -159 -427 -329 -220 -171
-533 -413 -695 -538 -162 -125 -325 -252 -362 -280 -36 -29 -79 -63 -95 -74
-15 -12 -123 -96 -239 -185 -116 -90 -226 -175 -244 -189 -19 -14 -56 -43 -84
-66 -28 -22 -100 -78 -161 -124 -60 -46 -115 -89 -122 -95 -6 -5 -90 -71 -187
-145 l-176 -135 0 -7988 c0 -6388 3 -7987 13 -7981 6 5 80 60 162 124 83 64
173 134 201 156 28 21 159 122 290 223 132 102 244 188 249 193 6 4 26 20 45
36 19 15 125 98 235 182 239 185 199 154 320 248 55 43 204 158 330 255 127
97 235 181 241 186 7 5 97 75 200 156 104 80 196 151 204 158 8 7 85 66 170
132 85 66 162 125 170 132 8 7 107 83 220 170 113 86 207 159 210 163 3 3 52
41 110 85 58 43 110 84 117 90 6 5 24 20 40 31 31 24 164 127 483 374 32 25
81 63 110 85 29 22 69 54 90 70 20 17 90 71 155 120 65 50 135 104 155 120 21
17 102 80 180 140 79 61 170 131 204 158 54 42 203 157 275 212 58 44 510 395
628 486 45 35 132 103 195 151 62 48 202 156 310 240 557 433 715 554 953 739
143 110 283 218 310 240 70 55 426 329 461 356 29 22 442 343 499 387 17 13
165 128 330 256 165 127 314 242 330 255 17 13 109 85 205 159 96 75 245 190
330 256 85 66 504 390 930 720 790 612 1345 1042 1383 1072 113 88 304 235
434 335 87 67 169 131 183 142 23 18 409 317 476 368 16 12 40 31 54 42 57 44
280 218 310 241 18 14 166 128 329 254 163 126 314 243 336 260 22 17 41 34
43 39 2 4 7 7 12 7 5 0 19 9 32 20 22 20 384 300 772 600 104 80 227 175 275
212 108 85 132 103 197 153 114 87 474 366 550 426 45 35 96 75 114 89 47 36
232 179 250 193 24 19 268 208 345 267 39 29 72 56 75 60 3 3 39 31 80 62 41
30 183 140 315 242 132 103 253 197 269 209 28 21 129 99 881 682 198 153 378
292 400 309 22 17 42 33 45 36 3 3 23 19 45 35 22 16 47 35 55 42 38 31 350
271 385 297 22 17 42 32 45 35 3 4 43 35 90 71 47 35 87 68 88 72 2 4 10 8 17
8 7 0 15 4 17 8 2 4 21 22 43 39 22 17 76 59 121 94 44 35 95 75 113 89 18 13
97 74 175 135 79 60 157 121 175 135 18 14 59 45 91 70 31 25 101 79 155 120
53 41 120 93 148 116 29 22 153 119 277 214 395 306 634 490 665 514 96 75
281 219 349 271 43 33 113 87 155 120 303 234 398 307 411 318 8 7 65 51 125
97 61 46 112 87 115 90 3 3 41 32 84 65 43 33 84 64 90 70 6 6 27 22 46 35 19
13 37 27 40 30 3 3 174 136 380 295 331 256 1315 1018 1395 1080 29 23 284
221 475 368 52 41 226 175 385 298 160 124 380 294 490 379 110 85 207 160
215 167 8 7 71 56 140 109 69 53 139 107 155 120 17 13 107 82 200 154 94 72
179 139 190 148 11 9 38 30 60 47 22 16 47 35 55 42 14 11 290 225 505 390 55
43 102 80 105 83 3 3 39 31 80 62 104 79 296 227 415 320 55 43 120 94 145
113 112 86 216 167 230 178 8 7 44 35 80 62 36 27 72 55 80 62 8 7 121 94 250
193 129 100 247 191 262 203 15 12 37 30 50 39 13 9 129 99 258 200 130 101
274 212 320 248 47 36 92 70 100 77 8 7 83 64 165 128 83 64 157 121 165 128
8 7 123 95 254 197 344 265 434 335 496 383 30 24 125 97 210 163 85 66 266
206 401 311 136 105 327 253 425 329 99 76 181 140 184 143 3 3 41 33 84 66
44 33 98 74 120 91 23 17 149 115 281 217 302 235 269 209 660 512 182 140
382 295 445 345 63 49 183 141 265 205 83 63 157 121 165 128 8 7 65 50 125
96 61 47 124 96 141 110 17 14 44 35 59 46 15 11 93 71 174 134 80 62 159 123
174 135 16 11 34 26 40 31 7 6 131 102 277 215 146 112 270 208 275 212 6 5
35 27 65 50 30 24 57 45 60 48 3 3 34 28 70 55 78 58 320 245 336 260 7 5 94
73 194 150 100 77 279 216 398 308 120 93 241 187 271 210 30 22 62 46 70 53
9 8 63 50 121 94 149 114 152 117 180 140 21 17 243 188 349 269 18 14 198
154 401 311 203 157 381 296 397 308 15 11 165 128 333 258 168 130 337 261
375 290 146 112 191 147 220 170 17 13 98 76 180 140 83 64 164 127 180 139
35 28 735 569 974 754 90 69 189 146 220 171 32 25 91 71 132 102 154 119 245
189 259 201 8 7 44 35 80 62 36 27 72 55 80 62 14 11 503 389 893 691 98 75
190 147 205 159 28 22 343 266 396 306 16 12 46 36 66 52 58 47 330 257 375
289 22 16 42 32 45 35 3 3 43 35 90 71 47 36 92 70 100 77 8 6 62 48 120 93
58 45 114 89 125 98 11 9 56 44 100 77 44 33 87 66 95 72 8 7 132 103 275 214
143 110 269 208 280 217 11 9 38 30 60 47 22 16 47 35 55 42 13 11 192 149
293 226 16 12 52 40 80 63 29 22 142 110 252 195 203 157 520 402 668 517 45
35 96 74 112 87 17 12 67 51 112 86 45 35 132 103 195 152 190 147 501 388
533 413 17 13 98 75 180 139 83 63 157 121 165 128 9 7 42 33 75 57 33 25 69
53 80 62 11 9 88 69 170 133 83 63 157 121 165 128 8 7 33 26 55 42 35 27 244
188 380 294 28 22 244 189 480 372 237 183 446 344 465 360 69 53 328 254 356
276 16 12 38 29 49 38 11 8 138 106 281 218 144 111 337 261 429 332 93 72
211 163 264 203 53 41 110 85 126 98 17 13 210 163 430 333 220 170 405 314
410 318 6 5 89 69 185 143 96 74 177 137 180 140 3 3 21 17 40 30 19 13 37 27
40 30 7 8 60 50 100 80 18 14 124 95 234 180 111 86 323 250 471 365 346 268
390 302 565 438 80 62 215 166 300 232 85 66 162 125 170 132 8 6 119 92 245
189 127 98 304 235 395 306 91 70 178 138 194 151 88 67 543 420 556 430 8 7
134 104 280 216 146 113 281 218 300 233 19 16 40 32 45 36 14 10 136 104 155
119 15 12 348 270 465 360 162 125 321 248 325 253 3 3 21 17 40 30 19 13 40
29 46 35 13 11 50 40 149 116 38 29 76 58 85 65 22 18 242 189 330 256 41 32
154 119 250 194 96 74 209 161 250 192 41 31 77 59 80 62 3 4 46 38 95 75 83
64 310 240 345 268 9 7 54 41 100 77 47 35 87 67 90 70 3 3 32 26 65 51 94 71
419 323 425 329 3 3 32 25 65 50 33 24 66 50 75 56 38 31 319 249 434 337 16
12 61 47 100 78 39 30 231 179 426 330 195 151 424 329 509 395 84 65 165 128
180 139 39 30 818 632 881 682 30 23 102 79 160 124 58 45 119 92 135 104 49
39 497 385 669 518 87 67 175 136 196 152 21 17 60 47 86 67 27 21 85 66 130
100 44 35 114 89 155 120 171 132 335 259 349 271 8 7 83 64 165 128 83 63
260 200 394 305 134 104 267 207 295 228 28 22 191 147 361 279 171 132 328
254 350 271 22 17 42 33 45 36 3 3 32 25 65 50 33 25 62 47 65 50 3 3 52 41
110 85 58 43 107 82 110 85 3 3 93 74 200 156 259 200 283 218 381 293 46 36
86 67 89 70 3 4 23 19 45 36 22 16 42 31 45 35 3 3 41 32 85 65 44 33 82 62
85 65 3 3 124 98 270 210 146 113 272 210 280 217 8 7 62 48 120 93 58 44 112
86 120 93 8 7 53 41 100 77 47 35 87 67 90 70 3 3 73 57 155 121 83 63 182
139 220 169 39 30 149 115 245 190 96 75 216 167 265 205 50 38 97 75 105 82
8 7 179 139 380 294 201 156 386 299 411 318 25 20 60 47 79 61 18 14 79 61
135 105 56 44 114 89 129 100 15 11 62 47 104 81 43 33 109 85 148 115 235
180 681 526 701 543 7 6 46 36 87 66 l75 55 1 7993 c0 4395 -1 7992 -2 7991
-2 0 -95 -72 -208 -161z"/>
<path d="M35314 16147 c-132 -105 -533 -419 -565 -442 -20 -15 -321 -250 -394
-307 -5 -5 -46 -36 -90 -70 -44 -35 -82 -65 -85 -68 -3 -3 -21 -17 -40 -30
-19 -13 -37 -27 -40 -30 -3 -3 -70 -57 -150 -118 -80 -62 -152 -119 -161 -126
-9 -7 -47 -37 -85 -67 -38 -29 -231 -179 -429 -334 -198 -154 -391 -305 -430
-335 -38 -29 -101 -79 -140 -110 -38 -31 -82 -65 -96 -75 -94 -71 -145 -110
-155 -119 -6 -6 -26 -22 -44 -36 -29 -22 -124 -96 -221 -172 -52 -41 -419
-327 -754 -588 -165 -129 -384 -299 -487 -379 -102 -80 -241 -189 -309 -241
-67 -52 -127 -99 -133 -105 -6 -5 -29 -23 -51 -39 -22 -17 -42 -32 -45 -36 -3
-3 -23 -18 -45 -35 -22 -16 -45 -34 -52 -40 -21 -17 -37 -30 -78 -60 -22 -17
-42 -33 -45 -36 -3 -3 -25 -21 -50 -40 -78 -59 -315 -243 -320 -249 -3 -3 -32
-25 -65 -50 -33 -25 -62 -47 -65 -51 -3 -3 -59 -47 -125 -97 -66 -51 -127 -98
-135 -105 -8 -7 -67 -53 -130 -102 -63 -49 -122 -95 -130 -102 -8 -7 -91 -71
-185 -144 -93 -72 -186 -144 -205 -159 -19 -16 -174 -137 -345 -270 -170 -133
-334 -260 -363 -283 -30 -23 -82 -64 -115 -90 -34 -26 -69 -53 -77 -60 -8 -7
-168 -131 -355 -277 -187 -145 -403 -314 -481 -375 -77 -60 -153 -120 -170
-132 -16 -12 -40 -31 -54 -42 -14 -11 -155 -122 -315 -246 -159 -124 -297
-231 -305 -238 -8 -7 -76 -59 -150 -116 -74 -57 -140 -110 -146 -117 -6 -8
-16 -14 -22 -14 -6 0 -12 -3 -14 -8 -1 -4 -70 -59 -151 -122 -82 -63 -217
-169 -302 -235 -84 -66 -208 -163 -275 -215 -68 -52 -128 -100 -134 -105 -6
-6 -38 -31 -71 -56 -47 -35 -700 -544 -765 -596 -22 -17 -381 -297 -485 -378
-50 -38 -97 -75 -105 -82 -8 -6 -125 -98 -260 -203 -135 -105 -252 -196 -260
-203 -8 -7 -82 -64 -164 -127 -82 -63 -172 -133 -200 -156 -28 -22 -186 -146
-351 -274 -165 -128 -314 -245 -331 -259 -17 -14 -43 -35 -58 -45 -15 -11 -37
-28 -49 -38 -27 -21 -22 -18 -125 -98 -46 -36 -123 -95 -170 -132 -48 -37 -98
-76 -112 -87 -24 -18 -193 -151 -215 -168 -5 -5 -48 -38 -95 -73 -47 -36 -87
-68 -90 -71 -3 -3 -88 -70 -190 -149 -301 -234 -1364 -1063 -1376 -1075 -7 -5
-22 -18 -35 -27 -24 -17 -252 -195 -522 -407 -82 -64 -161 -125 -176 -136 -28
-21 -284 -220 -311 -242 -8 -7 -69 -54 -135 -105 -122 -94 -221 -173 -263
-208 -13 -11 -27 -20 -32 -20 -5 0 -10 -3 -12 -8 -1 -4 -43 -39 -93 -77 -49
-38 -97 -75 -105 -82 -17 -14 -726 -567 -865 -674 -49 -39 -105 -82 -124 -97
-19 -15 -91 -71 -160 -125 -69 -54 -141 -110 -160 -125 -19 -15 -91 -71 -160
-125 -69 -53 -133 -103 -141 -110 -19 -15 -269 -210 -330 -256 -25 -19 -50
-39 -57 -45 -6 -6 -24 -21 -40 -33 -59 -44 -369 -286 -388 -301 -11 -10 -69
-55 -130 -102 -60 -47 -117 -90 -125 -97 -8 -7 -64 -51 -125 -98 -60 -47 -121
-95 -135 -106 -14 -11 -85 -66 -157 -122 l-133 -102 10401 -3 c5720 -1 15078
-1 20796 0 l10395 3 -129 100 c-70 54 -130 102 -133 105 -3 3 -32 25 -65 50
-33 25 -69 53 -80 62 -11 9 -67 53 -125 98 -58 44 -112 86 -120 93 -8 6 -35
28 -60 47 -25 19 -52 40 -60 47 -17 14 -350 273 -394 306 -16 12 -34 27 -40
32 -6 6 -29 24 -51 41 -614 477 -826 643 -855 666 -19 16 -39 32 -45 36 -32
24 -141 108 -145 112 -3 3 -34 28 -70 55 -36 28 -72 55 -80 62 -8 7 -44 35
-80 63 -36 28 -72 56 -80 63 -8 7 -44 34 -80 62 -36 27 -67 52 -70 55 -3 3
-43 34 -90 70 -47 35 -130 100 -185 143 -55 43 -107 84 -115 90 -130 102 -387
303 -426 333 -28 21 -132 102 -230 179 -98 77 -190 149 -205 160 -15 11 -108
83 -206 160 -98 77 -196 154 -218 171 -79 61 -1012 789 -1120 874 -60 48 -139
109 -175 137 -36 27 -191 148 -345 268 -154 120 -334 261 -400 312 -66 51
-127 99 -135 106 -8 7 -127 100 -265 207 -414 323 -716 557 -794 618 -40 31
-83 65 -95 74 -11 10 -25 21 -31 25 -5 5 -30 24 -55 43 -25 19 -52 40 -60 47
-8 6 -132 103 -275 214 -143 112 -354 277 -470 367 -261 205 -204 160 -640
499 -203 159 -395 308 -425 331 -30 24 -68 54 -85 67 -16 12 -64 49 -105 82
-41 32 -187 146 -325 253 -137 107 -257 200 -265 207 -139 110 -231 181 -305
238 -49 38 -94 73 -100 77 -10 8 -89 70 -169 133 -21 17 -64 50 -96 75 -31 25
-72 56 -90 70 -19 14 -45 34 -59 46 -14 12 -251 196 -526 410 -606 472 -740
577 -784 612 -19 15 -111 87 -205 160 -205 160 -204 158 -338 263 -58 46 -144
113 -190 149 -46 35 -207 161 -358 279 -151 118 -304 237 -340 265 -36 27 -99
76 -140 109 -41 32 -82 64 -90 70 -9 7 -36 28 -60 48 -25 19 -76 59 -113 88
-38 29 -173 134 -301 234 -128 100 -248 193 -266 207 -18 14 -38 30 -44 35 -6
6 -81 64 -166 130 -85 66 -162 125 -170 132 -34 27 -401 313 -700 546 -91 70
-172 134 -180 140 -8 7 -55 43 -103 80 -49 38 -96 75 -105 82 -16 14 -648 507
-792 619 -36 27 -116 90 -177 138 -62 49 -135 105 -162 126 -26 20 -137 107
-246 192 -233 183 -281 220 -361 280 -32 25 -61 47 -64 50 -3 3 -77 62 -165
130 -455 355 -722 562 -736 574 -9 7 -47 37 -85 67 -38 29 -130 100 -204 158
-74 59 -151 118 -170 133 -19 14 -100 77 -180 140 -80 63 -176 138 -214 167
-38 30 -76 60 -85 67 -9 7 -70 55 -136 106 -66 51 -125 97 -132 103 -6 5 -24
20 -40 32 -15 11 -98 75 -183 142 -85 66 -159 120 -165 120 -5 0 -51 -33 -101
-72z"/>
</g>
</svg>
